module github.com/ChainSafe/ChainBridge

go 1.13

require (
	github.com/ChainSafe/log15 v1.0.0
	github.com/btcsuite/btcd v0.20.1-beta // indirect
	github.com/centrifuge/go-substrate-rpc-client v1.1.1-0.20200428140716-e238735648d6
	github.com/ethereum/go-ethereum v1.9.13
	github.com/naoina/toml v0.1.2-0.20170918210437-9fafd6967416
	github.com/pierrec/xxHash v0.1.5 // indirect
	github.com/robertkrimen/otto v0.0.0-20170205013659-6a77b7cbc37d // indirect
	github.com/urfave/cli v1.22.2
	golang.org/x/crypto v0.0.0-20200427165652-729f1e841bcc
	gopkg.in/sourcemap.v1 v1.0.5 // indirect
)
